{
  "title": "soodar",
  "description": "soodar tests",
  "difficulty": "Beginner",
  "time": "30 seconds",
  "details": {
    "steps": [
      {
        "title": "Step 1",
        "text": "step1.md"
      },
      {
        "title": "Step 2",
        "text": "step2.md"
      },
      {
        "title": "Step 3",
        "text": "step3.md"
      },
      {
        "title": "Step 4",
        "text": "step4.md"
      },
      {
        "title": "Step 5",
        "text": "step5.md"
      }
    ],
    "intro": {
      "text": "intro.md"
    },
    "finish": {
      "text": "finish.md"
    }
  },
  "environment": {
    "uilayout": "terminal"
  },
  "backend": {
    "imageid": "tensorflow"
  }
}